{
    "apps": [
        {
            "name": "monitoring-task",
            "script": "./bin/www",
            "node_args": [
                "--harmony"
            ],
            
            "env": {
                "NODE_ENV": "production",
                "PORT":7000,
                "isTask":true
            }
        },
        {
            "name": "monitoring-tool",
            "script": "./bin/www",
            "node_args": [
                "--harmony"
            ],
            
            "env": {
                "NODE_ENV": "production",
                "PORT":3000
            }
        }
    ]
}